<?xml version="1.0" encoding="UTF-8"?>
<svg width="43px" height="43px" viewBox="0 0 43 43" version="1.1" xmlns="http://www.w3.org/2000/svg" xmlns:xlink="http://www.w3.org/1999/xlink">
    <!-- Generator: Sketch 52.6 (67491) - http://www.bohemiancoding.com/sketch -->
    <title>receipt</title>
    <desc>Created with Sketch.</desc>
    <g id="Page-1" stroke="none" stroke-width="1" fill="none" fill-rule="evenodd">
        <g id="Home" transform="translate(-1347.000000, -3409.000000)" fill="#378DF2">
            <g id="receipt" transform="translate(1347.000000, 3409.000000)">
                <path d="M32,5 C28.1340161,5 25,8.13399779 25,11.999959 C25,15.8659202 28.1340161,19 32,19 C35.8641792,18.9956524 38.9956523,15.8641975 39,12.000041 C39,8.13399779 35.8659839,5 32,5 Z M32,17.2500308 C29.1005121,17.2500308 26.7499795,14.8995119 26.7499795,12.000041 C26.7499795,9.10057012 29.1005121,6.75005127 32,6.75005127 C34.8983394,6.75292236 37.2471494,9.10171855 37.2500205,12.000041 C37.2500205,14.8995119 34.8994879,17.2500308 32,17.2500308 Z" id="Shape" fill-rule="nonzero"></path>
                <path d="M34.6650059,9 L31.5558914,11.8850577 L30.3350826,10.7522259 L29,11.9910964 L30.8883058,13.7433223 C31.0653372,13.9076782 31.3054804,14 31.5558028,14 C31.8062138,13.9999179 32.0462684,13.907596 32.2232999,13.7433223 L36,10.2387883 L34.6650059,9 Z" id="Path"></path>
                <rect id="Rectangle" x="18" y="23" width="13" height="2"></rect>
                <path d="M19.3636983,11 L9.36365573,11 C5.850763,11.0038555 3.00400568,13.743874 3,17.1250513 L4.81823605,17.1250513 C4.821219,14.7099598 6.85456839,12.7529326 9.36365573,12.7500615 L19.3636131,12.7500615 C20.3677594,12.7500615 21.1817639,13.5335451 21.1817639,14.500041 C21.1817639,15.466537 20.3677594,16.2500205 19.3636131,16.2500205 L9.36365573,16.2500205 L9.36365573,18 L19.3636131,18 C21.3719057,18 23,16.4330329 23,14.499959 C23,12.566885 21.3719909,11 19.3636983,11 Z" id="Path"></path>
                <path d="M0.80003,14 C0.358202239,14 0,14.4476632 0,14.9999531 L0,16 L4,16 L4,14 L0.80003,14 Z" id="Path"></path>
                <path d="M41.2353184,25.9655549 L41.2353184,38.5172646 C41.2353184,40.0027123 40.0501784,41.2069226 38.5882548,41.2069226 L17.4117452,41.2069226 C15.9498216,41.2069226 14.7646816,40.0027123 14.7646816,38.5172646 L14.7646816,17 L13,17 L13,38.5172646 C13.0028952,40.991834 14.9764466,42.9970582 17.4117452,43 L38.5882548,43 C41.0236361,42.9970582 42.9971048,40.99175 43,38.5172646 L43,25.9655549 L41.2353184,25.9655549 Z" id="Path"></path>
                <path d="M38.5499095,0 L20.7493805,0 C20.5133295,8.38818549e-05 20.287041,0.0943670867 20.1201615,0.262130796 L13,7.42002112 L14.2585213,8.68521114 L21.1179337,1.78945161 L38.5499095,1.78945161 C40.0245396,1.78945161 41.2199805,2.99122694 41.2199805,4.47367097 L41.2199805,17 L43,17 L43,4.47367097 C42.9970796,2.00418916 41.0063748,0.00293586492 38.5499095,0 Z" id="Path"></path>
                <path d="M21.7364952,0.270448475 C21.3850712,-0.0900773634 20.8151988,-0.0901639034 20.4636904,0.270275395 L13.2636735,7.65499729 C13.0948381,7.82807738 13,8.06286053 13,8.30759578 L13,12 L14.7999831,12 L14.7999831,8.68975664 L20.2000169,3.15119358 L20.2000169,6.46143695 C20.2000169,6.97124437 19.7970394,7.38455964 19.2999831,7.38455964 L17.5,7.38455964 L17.5,9.23071847 L19.2999831,9.23071847 C20.7911518,9.23071847 22,7.99085921 22,6.46143695 L22,0.922873895 C21.9999156,0.67813864 21.9051619,0.443442031 21.7364952,0.270448475 Z" id="Path"></path>
                <path d="M5.71425128,24 L4,24 C4.00377677,27.3121459 6.68785407,29.9962232 10,30 L10,28.2857487 C7.63421592,28.2828559 5.71706376,26.3657841 5.71425128,24 Z" id="Path"></path>
                <rect id="Rectangle" x="10" y="29" width="4" height="2"></rect>
                <path d="M0,25 L0,26.0000469 C0,26.552243 0.358195523,27 0.800015,27 L4,27 L4,25 L0,25 Z" id="Path"></path>
                <path d="M42.2324435,19.7429929 C41.195771,18.7523357 39.5648666,18.7523357 38.528194,19.7429929 L26.2588987,32.0307291 C25.9137004,32.3765293 25.9137004,32.9371157 26.2588987,33.2829989 L28.7127578,35.7405461 C28.8785591,35.9066796 29.1034685,36 29.3379115,36 C29.5724375,35.999917 29.797264,35.9065966 29.9630653,35.7405461 L42.2323606,23.4528099 C42.2327751,23.4523948 42.2332725,23.4518966 42.233687,23.4514815 C43.2559349,22.42695 43.2553546,20.7666942 42.2324435,19.7429929 Z M40.982136,22.2005402 L29.3379944,33.8621 L28.1345258,32.6568225 L39.7786673,20.9951797 C40.1153269,20.6729587 40.6454765,20.6729587 40.982136,20.9951797 C40.9823018,20.9953457 40.9824676,20.9955118 40.9826334,20.9956778 C41.3146505,21.328526 41.3144847,21.867941 40.982136,22.2005402 Z" id="Shape" fill-rule="nonzero"></path>
                <path d="M28.2286265,33.9979807 L25.7739716,35.2245403 L27.0030266,32.7671622 L25.4696808,32 L23.0903955,36.7596683 C23.0308551,36.8787564 22.9999198,37.0100587 23.0000002,37.1432092 C23.0002412,37.6165886 23.3841602,38.0001295 23.8575103,37.9999688 C23.9900901,38.0010938 24.1211433,37.9717637 24.2406258,37.9142286 L29,35.5314212 L28.2286265,33.9979807 Z" id="Path"></path>
                <polygon id="Rectangle" transform="translate(37.239349, 24.576137) rotate(-44.991897) translate(-37.239349, -24.576137) " points="36.3435383 22.8185292 38.1351598 22.8185292 38.1351598 26.3337455 36.3435383 26.3337455"></polygon>
                <rect id="Rectangle" x="18" y="37" width="6" height="2"></rect>
                <rect id="Rectangle" x="18" y="32" width="5" height="2"></rect>
                <rect id="Rectangle" x="18" y="28" width="8" height="2"></rect>
                <rect id="Rectangle" x="30" y="37" width="8" height="2"></rect>
                <rect id="Rectangle" x="34" y="32" width="4" height="2"></rect>
            </g>
        </g>
    </g>
</svg>